%YAML 1.1
%TAG !u! tag:unity3d.com,2011:
--- !u!1045 &1
EditorBuildSettings:
  m_ObjectHideFlags: 0
  serializedVersion: 2
  m_Scenes:
  - enabled: 1
    path: Assets/Scenes/StartScene.unity
    guid: 3bb3c5b30e6bd49bf99fe51fd1ec17a9
  - enabled: 1
    path: Assets/Scenes/CharacterPickingScene.unity
    guid: f725ad673663d46eaaf03522234fe32d
  - enabled: 1
    path: Assets/Scenes/TownMap.unity
    guid: 89a99763fa39849499a8c69de494fe87
  - enabled: 1
    path: Assets/Scenes/RoomsMap.unity
    guid: 49eec832c7a7f46e1bd1debff78b4b89
  - enabled: 1
    path: Assets/Scenes/WinningScene.unity
    guid: 672a28c7df9bf4938bac4d943d9db5d5
  m_configObjects: {}
